<svg xmlns="http://www.w3.org/2000/svg" viewBox="0 0 552.39 230.72">
  <path fill="#413000" d="M331.05 78.53c-12.11 0-21.13 6-21.13 20.26 0 10.78 5.94 18.27 20.48 18.27 12.32 0 20.68-7.26 20.68-18.72 0-12.98-7.48-19.81-20.03-19.81zm-24.22 101.06c-2.87 3.52-5.73 7.25-5.73 11.67 0 8.79 11.23 11.44 26.64 11.44 12.77 0 30.16-.89 30.16-12.76 0-7.06-8.36-7.5-18.94-8.16l-32.13-2.19zm65.16-100.4c4 5.07 8.15 12.12 8.15 22.24 0 24.44-19.16 38.75-46.89 38.75a70 70 0 0 1-17.4-2l-7.26 11.67 21.61 1.33c38.09 2.43 60.54 3.53 60.54 32.8 0 25.33-22.23 39.63-60.54 39.63-39.85 0-55-10.13-55-27.52 0-9.91 4.41-15.18 12.11-22.46-7.26-3.07-9.68-8.57-9.68-14.52 0-4.84 2.42-9.25 6.38-13.43s8.37-8.37 13.65-13.21c-10.79-5.28-18.93-16.73-18.93-33 0-25.31 16.73-42.69 50.41-42.69 9.47 0 15.19.87 20.26 2.2h42.93v18.7l-20.26 1.55m59-40c-12.55 0-19.82-7.27-19.82-19.83S418.52.04 431.07.04c12.77 0 20 6.83 20 19.36s-7.3 19.79-20.07 19.79zm-28.41 132.3V154.1l11.24-1.53c3.08-.45 3.52-1.11 3.52-4.42V83.43c0-2.41-.66-4-2.87-4.62l-11.89-4.18 2.42-17.83h45.58v91.36c0 3.52.21 4 3.52 4.41l11.23 1.54v17.38h-62.82m149.81-8.54c-9.47 4.62-23.34 8.81-35.89 8.81-26.2 0-36.1-10.56-36.1-35.45V78.64c0-1.32 0-2.2-1.77-2.2H463.2v-19.6c19.38-2.2 27.08-11.89 29.5-35.89h20.92v31.27c0 1.54 0 2.2 1.76 2.2h31v22h-32.8v52.61c0 13 3.08 18.05 15 18.05a52.26 52.26 0 0 0 17.84-3.53l6 19.38"/>
  <path fill="#f05133" d="M226.2 105.18L125.54 4.53a14.84 14.84 0 0 0-21 0l-20.91 20.9 26.57 26.52a17.63 17.63 0 0 1 22.33 22.47l25.55 25.56a17.65 17.65 0 0 1 18.26 29.16 17.66 17.66 0 0 1-28.83-19.21L123.68 86.1v62.71a17.88 17.88 0 0 1 4.67 3.34 17.67 17.67 0 1 1-25 0 17.89 17.89 0 0 1 5.75-3.79v-63.3a17.37 17.37 0 0 1-5.79-3.85 17.67 17.67 0 0 1-3.8-19.32L73.37 35.7l-69 69a14.85 14.85 0 0 0 0 21l100.64 100.66a14.85 14.85 0 0 0 21 0L226.2 126.19a14.85 14.85 0 0 0 0-21"/>
</svg>
