<svg xmlns="http://www.w3.org/2000/svg" viewBox="0 0 546.26 334.56">
  <defs>
    <clipPath id="a" transform="translate(-26.87 -112.72)">
      <path d="M225.34 190l-52 30a6.27 6.27 0 0 0-3.15 5.44v60.1a6.29 6.29 0 0 0 3.15 5.44l52 30.05a6.31 6.31 0 0 0 6.29 0l52-30.05a6.29 6.29 0 0 0 3.13-5.44v-60.1a6.27 6.27 0 0 0-3.14-5.44l-52-30a6.31 6.31 0 0 0-6.29 0" class="a"/>
    </clipPath>
    <linearGradient id="b" x1="-3.7" x2="-2.22" y1="718.12" y2="718.12" data-name="Unbenannter Verlauf 4" gradientTransform="scale(-115.3 115.3) rotate(63.888 571.621 360.927)" gradientUnits="userSpaceOnUse">
      <stop offset=".3" stop-color="#3e863d"/>
      <stop offset=".5" stop-color="#55934f"/>
      <stop offset=".8" stop-color="#5aad45"/>
    </linearGradient>
    <clipPath id="c" transform="translate(-26.87 -112.72)">
      <path d="M171.46 289.39a6.3 6.3 0 0 0 1.85 1.63l44.63 25.77 7.43 4.28a6.37 6.37 0 0 0 3.63.82 6.5 6.5 0 0 0 1.23-.23l54.87-100.47a6.38 6.38 0 0 0-1.46-1.16l-34.06-19.67-18-10.36a6.38 6.38 0 0 0-1.63-.65z" class="a"/>
    </clipPath>
    <linearGradient id="d" x1="-5.66" x2="-4.7" y1="716.48" y2="716.48" data-name="Unbenannter Verlauf 2" gradientTransform="scale(177.06 -177.06) rotate(36.459 1087.948 367.363)" gradientUnits="userSpaceOnUse">
      <stop offset=".57" stop-color="#3e863d"/>
      <stop offset=".72" stop-color="#619857"/>
      <stop offset="1" stop-color="#76ac64"/>
    </linearGradient>
    <clipPath id="e" transform="translate(-26.87 -112.72)">
      <path d="M227.85 189.2a6.39 6.39 0 0 0-2.51.81L173.47 220l55.93 101.84a6.22 6.22 0 0 0 2.24-.77l52-30.05a6.31 6.31 0 0 0 3-4.3l-57-97.41a6.11 6.11 0 0 0-1.28-.13h-.52" class="a"/>
    </clipPath>
    <linearGradient id="f" x1="-4.53" x2="-3.66" y1="715.98" y2="715.98" data-name="Unbenannter Verlauf 3" gradientTransform="matrix(129.89 0 0 -129.89 761.74 93252.86)" gradientUnits="userSpaceOnUse">
      <stop offset=".16" stop-color="#6bbf47"/>
      <stop offset=".38" stop-color="#79b461"/>
      <stop offset=".47" stop-color="#75ac64"/>
      <stop offset=".7" stop-color="#659e5a"/>
      <stop offset=".9" stop-color="#3e863d"/>
    </linearGradient>
  </defs>
  <path d="M270 334.56a10.38 10.38 0 0 1-5.18-1.38l-16.47-9.75c-2.46-1.38-1.26-1.87-.45-2.15a33.66 33.66 0 0 0 7.45-3.39 1.26 1.26 0 0 1 1.23.08l12.65 7.51a1.65 1.65 0 0 0 1.53 0l49.37-28.47a1.55 1.55 0 0 0 .75-1.34v-56.92a1.57 1.57 0 0 0-.76-1.36l-49.31-28.45a1.48 1.48 0 0 0-1.52 0l-49.3 28.45a1.57 1.57 0 0 0-.79 1.34v56.93a1.53 1.53 0 0 0 .77 1.32l13.51 7.81c7.33 3.66 11.82-.66 11.82-5V243.6a1.41 1.41 0 0 1 1.43-1.42h6.25a1.41 1.41 0 0 1 1.42 1.42v56.21c0 9.78-5.34 15.4-14.61 15.4-2.85 0-5.1 0-11.37-3.09l-12.94-7.46a10.41 10.41 0 0 1-5.18-9v-56.93a10.38 10.38 0 0 1 5.18-9l49.34-28.45a10.79 10.79 0 0 1 10.37 0l49.32 28.5a10.39 10.39 0 0 1 5.17 9v56.92a10.43 10.43 0 0 1-5.17 9l-49.32 28.49a10.3 10.3 0 0 1-5.2 1.38" class="b"/>
  <path d="M285.23 295.33c-21.58 0-26.11-9.91-26.11-18.22a1.42 1.42 0 0 1 1.43-1.42h6.37a1.43 1.43 0 0 1 1.41 1.21c1 6.49 3.83 9.77 16.88 9.77 10.4 0 14.82-2.35 14.82-7.86 0-3.18-1.26-5.54-17.41-7.12-13.51-1.33-21.86-4.31-21.86-15.11 0-9.95 8.4-15.88 22.46-15.88 15.8 0 23.63 5.48 24.61 17.26a1.43 1.43 0 0 1-1.31 1.55h-6.53a1.42 1.42 0 0 1-1.38-1.11c-1.54-6.83-5.27-9-15.41-9-11.35 0-12.67 3.95-12.67 6.92 0 3.59 1.56 4.64 16.87 6.67s22.36 4.85 22.36 15.51-9 16.9-24.6 16.9m60.09-60.37h1.65a1.44 1.44 0 0 0 1.62-1.51c0-1.45-1-1.45-1.55-1.45h-1.71zm-2-4.67h3.66c1.26 0 3.73 0 3.73 2.82a2.44 2.44 0 0 1-2 2.61c1.47.1 1.57 1.07 1.77 2.42a10.66 10.66 0 0 0 .55 2.82h-2.26c-.06-.49-.4-3.21-.4-3.36-.15-.6-.36-.9-1.12-.9h-1.86v4.27h-2.06zm-4.41 5.31a8 8 0 1 0 7.94-7.95 8 8 0 0 0-7.94 7.95m17.48 0a9.51 9.51 0 1 1-9.51-9.51 9.53 9.53 0 0 1 9.51 9.51" class="b"/>
  <path fill="#333" fill-rule="evenodd" d="M117.23 111.82a6.31 6.31 0 0 0-3.16-5.49l-52.3-30.05a6.07 6.07 0 0 0-2.87-.82h-.55a6.24 6.24 0 0 0-2.89.82L3.13 106.33a6.37 6.37 0 0 0-3.16 5.49l.16 81.06a3.13 3.13 0 0 0 1.56 2.73 3 3 0 0 0 3.14 0l31.09-17.81a6.36 6.36 0 0 0 3.15-5.52v-37.83a6.3 6.3 0 0 1 3.16-5.47l13.24-7.62a6.27 6.27 0 0 1 3.16-.85 6.17 6.17 0 0 1 3.14.85L75 128.98a6.29 6.29 0 0 1 3.16 5.47v37.83a6.4 6.4 0 0 0 3.17 5.48l31.07 17.8a3.09 3.09 0 0 0 3.16 0 3.17 3.17 0 0 0 1.57-2.73zm246.81 42.2a1.55 1.55 0 0 1-.79 1.36l-18 10.36a1.57 1.57 0 0 1-1.57 0l-18-10.36a1.57 1.57 0 0 1-.79-1.36v-20.74a1.58 1.58 0 0 1 .78-1.37l17.95-10.38a1.61 1.61 0 0 1 1.59 0l18 10.38a1.55 1.55 0 0 1 .79 1.37zM368.89.4a3.16 3.16 0 0 0-4.7 2.76v80.27a2.2 2.2 0 0 1-2.2 2.21 2.15 2.15 0 0 1-1.11-.3l-13.1-7.54a6.31 6.31 0 0 0-6.32 0l-52.33 30.19a6.32 6.32 0 0 0-3.16 5.46v60.41a6.34 6.34 0 0 0 3.16 5.47l52.32 30.22a6.36 6.36 0 0 0 6.32 0l52.36-30.27a6.34 6.34 0 0 0 3.16-5.47V23.28a6.33 6.33 0 0 0-3.24-5.52zm174.24 132.33a6.32 6.32 0 0 0 3.14-5.46v-14.64a6.31 6.31 0 0 0-3.15-5.46l-52-30.18a6.3 6.3 0 0 0-6.34 0l-52.3 30.19a6.32 6.32 0 0 0-3.16 5.47v60.38a6.34 6.34 0 0 0 3.19 5.5l52 29.62a6.31 6.31 0 0 0 6.2 0l31.42-17.43a3.16 3.16 0 0 0 0-5.5l-52.63-30.2a3.15 3.15 0 0 1-1.6-2.73v-18.94a3.14 3.14 0 0 1 1.59-2.74l16.37-9.45a3.16 3.16 0 0 1 3.15 0l16.38 9.45a3.16 3.16 0 0 1 1.59 2.73v14.94a3.15 3.15 0 0 0 4.74 2.73z"/>
  <path fill="#689f63" fill-rule="evenodd" d="M487.19 129.91a1.19 1.19 0 0 1 1.21 0l10 5.79a1.21 1.21 0 0 1 .61 1.05v11.59a1.19 1.19 0 0 1-.61 1.05l-10 5.79a1.19 1.19 0 0 1-1.21 0l-10-5.79a1.22 1.22 0 0 1-.62-1.05v-11.59a1.21 1.21 0 0 1 .61-1.05z"/>
  <g clip-path="url(#a)">
    <path fill="url(#b)" d="M339.36 214.94l-146.6-71.86-75.16 153.34 146.59 71.86z" transform="translate(-26.87 -112.72)"/>
  </g>
  <g clip-path="url(#c)">
    <path fill="url(#d)" d="M108.08 236.19l103.51 140.1 136.9-101.14L245 135.05z" transform="translate(-26.87 -112.72)"/>
  </g>
  <g clip-path="url(#e)">
    <path fill="url(#f)" d="M173.46 189.18v132.66h113.22V189.18z" transform="translate(-26.87 -112.72)"/>
  </g>
</svg>
