<svg xmlns="http://www.w3.org/2000/svg" viewBox="0 0 354.331 354.331">
  <g fill="#fff">
    <path d="M102.28 51.27L13.623 345.24h72.114l14.848-63.206h86.112l14.845 63.206h73.81l-34.36-113.69h-128.53l30.967-129.8V51.27z"/>
    <path d="M163.679 131.291l-43.085-66.88 66.88-43.085 43.085 66.88zM302.77 193.392l-74.483 59.35-59.35-74.484 74.484-59.35zM248.898 6.119l92.95 20.746-20.746 92.951-92.95-20.746z"/>
  </g>
</svg>
