<svg xmlns="http://www.w3.org/2000/svg" viewBox="0 0 480.42 480.42">
  <defs/>
  <path fill="#ef2d5e" d="M0 0h480.42v480.42H0z"/>
  <g fill="#FFF">
    <path d="M159 106.32L63.59 422.69h77.62l16-68h92.67l16 68h79.43l-37-122.35H169.96l33.33-139.69v-54.33z"/>
    <path d="M225.08 192.44l-46.37-72 72-46.36 46.37 72zm149.69 66.83l-80.16 63.87-63.87-80.16 80.16-63.87zm-58-201.54l100 22.33-22.33 100-100-22.33z"/>
  </g>
</svg>
