<svg xmlns="http://www.w3.org/2000/svg" viewBox="0 0 491.18 425.37">
  <path fill="#4dba87" d="M302.31 0l-56.72 98.24L188.87 0H0l245.59 425.38L491.18 0z"/>
  <path fill="#435466" d="M302.31 0l-56.72 98.24L188.87 0H98.24l147.35 255.23L392.95 0z"/>
</svg>
