<svg xmlns="http://www.w3.org/2000/svg" viewBox="0 0 486.87 550.86">
  <path fill="#fff" d="M243.43 0l243.43 137.72v275.42L243.43 550.86 0 413.14V137.72z"/>
  <path fill="#8ed6fb" d="M443.43 403.64l-192 108.57v-84.56l119.59-65.78zm13.13-11.89v-227l-70.23 40.53v145.89l70.23 40.58zM42.69 403.64l191.93 108.57v-84.56l-119.59-65.78-72.34 41.77zm-13.13-11.89v-227l70.23 40.53v145.89l-70.23 40.58zm8.22-241.73L234.62 38.65v81.78l-126.1 69.36-1 .55zm410.52 0L251.43 38.65v81.78l126.1 69.36 1 .55z"/>
  <path fill="#1c78c0" d="M234.62 408.43l-118-64.87V215.02l118 68.12v125.29zm16.81 0l118-64.87V215.02l-118 68.12v125.29zm-126.8-208.28l118.43-65.14 118.44 65.14-118.44 68.39z"/>
</svg>
